{ "page": 1, "limit": 12, "total": 417, "pages": 35, "list": [ { "title": "", "msg": "这回终于登上了，之前不知道出什么问题，一", "link": "202603281649283150.json", "date": "2026-03-28 16:49:28", "username": "BIUE GOD", "qq": "2524265562" }, { "title": "请输入文本2.0", "msg": "还得是大魏忠臣司马懿，开局3分钟就能给全", "link": "202603280135323048.json", "date": "2026-03-28 01:35:32", "username": "BLACK SUN", "qq": "2991571265" }, { "title": "", "msg": "到底是谁想剪狼尾啊真受不了了", "link": "202603272140596075.json", "date": "2026-03-27 21:40:59", "username": "绝望的榭罒114514", "qq": "3283709868" }, { "title": "我的天", "msg": "突然发现谋孙策和谋大乔的原画居然能拼起来", "link": "202603271419153325.json", "date": "2026-03-27 14:19:15", "username": "BLACK SUN", "qq": "2991571265" }, { "title": "点击输入文本", "msg": "以前怎么没发现文鸯这么好玩，输出高的一批", "link": "202603250153387038.json", "date": "2026-03-25 01:53:38", "username": "BLACK SUN", "qq": "2991571265" }, { "title": "僵尸社区", "msg": "昔日的繁华已成过去，现在已经变成破败的社", "link": "202603250010458796.json", "date": "2026-03-25 00:10:45", "username": "棍父", "qq": "2216368705" }, { "title": "说的棍母", "msg": "怎么这么拉了差评👊", "link": "202603240643037319.json", "date": "2026-03-24 06:43:03", "username": "Freewd社区", "qq": "3897689402" }, { "title": "Deepseek老师，Freewd社区的...", "msg": "只是服了之前那个元宝写的雷霆php了，我", "link": "202603230036095748.json", "date": "2026-03-23 00:36:09", "username": "棍父", "qq": "2216368705" }, { "title": "🥱累死我了", "msg": "🥱只不过是半成品，一个人忙不过来，一早上和AI疯狂...", "link": "202603221611419240.json", "date": "2026-03-22 16:18:46", "username": "棍父", "qq": "2216368705" }, { "title": "", "msg": "嗯，我已下定决心了，准备好重构社区了👏", "link": "202603220352562301.json", "date": "2026-03-22 03:52:56", "username": "棍父", "qq": "2216368705" }, { "title": "", "msg": "wash self free", "link": "202603220316553744.json", "date": "2026-03-22 03:16:55", "username": "Ciallo～(∠・ω< )⌒☆", "qq": "753835693" }, { "title": "已严肃", "msg": "正在等待Minecraft live直播ing💋💋...", "link": "202603220024082856.json", "date": "2026-03-22 00:24:08", "username": "棍父", "qq": "2216368705" } ] }